Getting My Colleagues Hooked on R
…
arrange()

select() (and rename())

distinct()

mutate() (and transmute())

summarise()

sample_n() (and sample_frac())

filter(flights, month == 1, day == 1)

# A tibble: 842 x 19
    year month   day dep_time sched_dep_time dep_delay arr_time
   <int> <int> <int>    <int>          <int>     <dbl>    <int>
1   2013     1     1      517            515         2      830
2   2013     1     1      533            529         4      850
3   2013     1     1      542            540         2      923
4   2013     1     1      544            545        -1     1004
5   2013     1     1      554            600        -6      812
6   2013     1     1      554            558        -4      740
7   2013     1     1      555            600        -5      913
8   2013     1     1      557            600        -3      709
9   2013     1     1      557            600        -3      838
10  2013     1     1      558            600        -2      753
# ... with 832 more rows, and 12 more variables: sched_arr_time <int>,
#   arr_delay <dbl>, carrier <chr>, flight <int>, tailnum <chr>,
#   origin <chr>, dest <chr>, air_time <dbl>, distance <dbl>, hour <dbl>,
#   minute <dbl>, time_hour <time>

arrange(flights, desc(dep_delay))

# A tibble: 336,776 x 19
    year month   day dep_time sched_dep_time dep_delay arr_time
   <int> <int> <int>    <int>          <int>     <dbl>    <int>
1   2013     1     9      641            900      1301     1242
2   2013     6    15     1432           1935      1137     1607
3   2013     1    10     1121           1635      1126     1239
4   2013     9    20     1139           1845      1014     1457
5   2013     7    22      845           1600      1005     1044
6   2013     4    10     1100           1900       960     1342
7   2013     3    17     2321            810       911      135
8   2013     6    27      959           1900       899     1236
9   2013     7    22     2257            759       898      121
10  2013    12     5      756           1700       896     1058
# ... with 336,766 more rows, and 12 more variables: sched_arr_time <int>,
#   arr_delay <dbl>, carrier <chr>, flight <int>, tailnum <chr>,
#   origin <chr>, dest <chr>, air_time <dbl>, distance <dbl>, hour <dbl>,
#   minute <dbl>, time_hour <time>

mutate(flights, gain = arr_delay - dep_delay,
  speed = distance / air_time * 60)

# A tibble: 336,776 x 21
    year month   day dep_time sched_dep_time dep_delay arr_time
   <int> <int> <int>    <int>          <int>     <dbl>    <int>
1   2013     1     1      517            515         2      830
2   2013     1     1      533            529         4      850
3   2013     1     1      542            540         2      923
4   2013     1     1      544            545        -1     1004
5   2013     1     1      554            600        -6      812
6   2013     1     1      554            558        -4      740
7   2013     1     1      555            600        -5      913
8   2013     1     1      557            600        -3      709
9   2013     1     1      557            600        -3      838
10  2013     1     1      558            600        -2      753
# ... with 336,766 more rows, and 14 more variables: sched_arr_time <int>,
#   arr_delay <dbl>, carrier <chr>, flight <int>, tailnum <chr>,
#   origin <chr>, dest <chr>, air_time <dbl>, distance <dbl>, hour <dbl>,
#   minute <dbl>, time_hour <time>, gain <dbl>, speed <dbl>
…
